<?xml version="1.0" encoding="utf-8"?>
<!-- Generator: Adobe Illustrator 18.0.0, SVG Export Plug-In . SVG Version: 6.00 Build 0)  -->
<!DOCTYPE svg PUBLIC "-//W3C//DTD SVG 1.1//EN" "http://www.w3.org/Graphics/SVG/1.1/DTD/svg11.dtd">
<svg version="1.1" id="Layer_1" xmlns="http://www.w3.org/2000/svg" xmlns:xlink="http://www.w3.org/1999/xlink" x="0px" y="0px"
     viewBox="0 0 183.2 187.5" enable-background="new 0 0 183.2 187.5" xml:space="preserve">
<g>
    <polygon fill="#000000" points="91.6,82.5 0,0 0,75.3 91.6,157.8 183.2,75.3 183.2,0  "/>
    <polygon fill="#000000" points="183.2,123.4 183.2,187.5 112.9,187.5     "/>
    <polygon fill="#000000" points="0,123.4 0,187.5 70.4,187.5  "/>
</g>
</svg>
